…
#Other variable names can be found at https://projects.ecoforecast.org/neon4cast-docs/Shared-Forecast-Drivers.html#stage-3

# past stacked weather
weather_past_s3 <- neon4cast::noaa_stage3()

weather_past <- weather_past_s3  |> 
  dplyr::filter(site_id %in% focal_sites,
                datetime >= ymd('2017-01-01'),
                variable %in% met_variables) |> 
  dplyr::collect()

weather_past
```

    ## # A tibble: 6,968,521 × 7
    ##    parameter datetime            variable   prediction family reference_datetime
    ##        <dbl> <dttm>              <chr>           <dbl> <chr>  <lgl>             
    ##  1         0 2020-09-24 00:00:00 air_tempe…       297. ensem… NA                
    ##  2         1 2020-09-24 00:00:00 air_tempe…       297. ensem… NA                
    ##  3         2 2020-09-24 00:00:00 air_tempe…       297. ensem… NA                
    ##  4         3 2020-09-24 00:00:00 air_tempe…       297. ensem… NA                
    ##  5         4 2020-09-24 00:00:00 air_tempe…       298. ensem… NA                
    ##  6         5 2020-09-24 00:00:00 air_tempe…       297. ensem… NA                
    ##  7         6 2020-09-24 00:00:00 air_tempe…       297. ensem… NA                
    ##  8         7 2020-09-24 00:00:00 air_tempe…       297. ensem… NA                
    ##  9         8 2020-09-24 00:00:00 air_tempe…       297. ensem… NA                
    ## 10         9 2020-09-24 00:00:00 air_tempe…       297. ensem… NA                
    ## # ℹ 6,968,511 more rows
    ## # ℹ 1 more variable: site_id <chr>
…
``` r
weather_future_daily <- weather_future |> 
  mutate(datetime = as_date(datetime)) |> 
  # mean daily forecasts at each site per ensemble
  group_by(datetime, site_id, parameter, variable) |> 
  summarize(prediction = mean(prediction), .groups = 'drop') |>
  pivot_wider(names_from = variable, values_from = prediction) |>
  # convert to Celsius
  mutate(air_temperature = air_temperature - 273.15) |> 
  select(datetime, site_id, air_temperature, parameter)

weather_future_daily
```

    ## # A tibble: 7,595 × 4
    ##    datetime   site_id air_temperature parameter
    ##    <date>     <chr>             <dbl>     <dbl>
    ##  1 2024-05-24 BARC               27.5         0
    ##  2 2024-05-24 BARC               27.4         1
    ##  3 2024-05-24 BARC               27.6         2
    ##  4 2024-05-24 BARC               28.2         3
    ##  5 2024-05-24 BARC               27.3         4
    ##  6 2024-05-24 BARC               27.4         5
    ##  7 2024-05-24 BARC               27.3         6
    ##  8 2024-05-24 BARC               27.4         7
    ##  9 2024-05-24 BARC               25.8         8
    ## 10 2024-05-24 BARC               27.6         9
    ## # ℹ 7,585 more rows
…
